<svg width="13" height="22" viewBox="0 0 13 22" fill="none" xmlns="http://www.w3.org/2000/svg">
<path d="M0.412824 11.3618L11.7409 21.5529C11.8029 21.6086 11.8762 21.642 11.9526 21.6493C12.029 21.6567 12.1055 21.6377 12.1738 21.5945C12.242 21.5513 12.2992 21.4856 12.3391 21.4046C12.3789 21.3236 12.3999 21.2306 12.3997 21.1358L12.3997 0.753565C12.3995 0.658944 12.3783 0.566195 12.3384 0.485512C12.2984 0.404829 12.2413 0.339334 12.1732 0.296225C12.1051 0.253115 12.0288 0.234058 11.9525 0.24115C11.8762 0.248241 11.803 0.281208 11.7409 0.336424L0.412824 10.534C0.359306 10.5808 0.315648 10.6428 0.285517 10.7148C0.255386 10.7869 0.23966 10.8668 0.23966 10.9479C0.23966 11.029 0.255386 11.1089 0.285517 11.1809C0.315648 11.253 0.359306 11.315 0.412824 11.3618Z" fill="white"/>
</svg>
