<svg width="524" height="227" viewBox="0 0 524 227" fill="none" xmlns="http://www.w3.org/2000/svg">
<path d="M275.194 48.0954C275.194 61.599 285.846 70.2134 300.804 70.2134C307.498 70.2134 317.742 64.9167 317.742 59.5618C317.742 58.1649 316.694 56.9426 315.239 56.9426C311.863 56.9426 309.826 63.9272 301.969 63.9272C295.275 63.9272 289.745 59.5618 289.745 47.3388C289.745 37.9095 293.587 30.9831 300.921 30.9831C310.699 30.9831 309.07 40.8198 313.61 40.8198C315.647 40.8198 316.694 39.7139 316.694 37.7349C316.694 32.089 316.52 31.6234 314.366 29.9354C311.514 27.7236 305.868 25.7447 299.99 25.7447C287.592 25.7447 275.194 34.8829 275.194 48.0954ZM321.134 46.0001C321.134 47.979 322.88 49.4342 326.023 49.4342C330.796 49.4342 330.68 45.0688 334.055 45.0688C336.442 45.0688 337.373 46.1747 337.49 50.6565C328.759 50.6565 318.748 52.228 318.748 60.6677C318.748 65.0913 322.123 69.8642 329.515 69.8642C332.659 69.8642 336.325 69.1075 338.188 66.2554C338.595 68.4672 339.061 69.2821 341.68 69.2821H350.819C352.565 69.2821 353.554 68.5836 353.554 67.1285C353.554 64.4511 350.586 65.3824 350.586 61.9483V51.3549C350.586 41.7511 341.971 40.4124 335.336 40.4124C325.732 40.4124 321.134 42.5659 321.134 46.0001ZM337.781 54.9636C337.781 62.7631 335.685 64.0436 334.114 64.0436C332.6 64.0436 331.553 62.7631 331.553 60.726C331.553 56.7098 334.579 54.9636 337.781 54.9636ZM352.804 45.4762C352.804 48.0954 355.54 46.0583 355.54 50.0162V63.287C355.54 65.4406 353.328 64.8003 353.328 67.0121C353.328 68.9911 355.831 69.2821 356.937 69.2821H366.948C368.054 69.2821 370.557 68.9911 370.557 67.0121C370.557 64.7421 368.345 65.4988 368.345 63.287V51.2967C368.345 46.6985 370.091 46.3493 371.255 46.3493C372.42 46.3493 374.166 46.7567 374.166 51.2967V63.287C374.166 65.4406 371.954 64.8003 371.954 67.0121C371.954 68.9911 374.457 69.2821 375.563 69.2821H385.574C386.68 69.2821 389.183 68.9911 389.183 67.0121C389.183 64.7421 386.971 65.4988 386.971 63.287V51.2967C386.971 46.6985 388.717 46.3493 389.881 46.3493C391.045 46.3493 392.791 46.7567 392.791 51.2967V63.287C392.791 65.4406 390.58 64.8003 390.58 67.0121C390.58 68.9911 393.082 69.2821 394.188 69.2821H404.2C405.305 69.2821 407.808 68.9911 407.808 67.0121C407.808 64.7421 405.596 65.4988 405.596 63.287V50.6565C405.596 43.9629 401.697 40.4124 394.712 40.4124C390.929 40.4124 387.029 41.7511 384.992 44.9524C383.362 41.9839 379.928 40.4124 376.552 40.4124C373.293 40.4124 369.8 41.5765 367.414 44.2539C367.123 42.4495 366.657 40.4124 364.562 40.4124C362.641 40.4124 360.255 41.2854 356.879 42.5659C354.725 43.3808 352.804 44.0211 352.804 45.4762ZM407.573 55.5457C407.573 65.0331 416.246 69.8642 424.744 69.8642C431.728 69.8642 440.11 65.7316 440.11 61.7154C440.11 60.3767 438.946 59.7365 437.84 59.7365C435.279 59.7365 433.358 64.3929 427.829 64.3929C424.511 64.3929 422.241 62.1229 421.426 59.3872C430.622 57.8157 439.702 55.9531 439.702 48.9685C439.702 44.8942 434.988 40.4124 426.141 40.4124C417.293 40.4124 407.573 45.6508 407.573 55.5457ZM425.675 45.418C427.479 45.418 427.945 47.2224 427.945 48.4447C427.945 52.1116 424.394 54.2652 420.902 54.3816C421.019 49.4924 422.765 45.418 425.675 45.418ZM440.101 45.1852C440.101 48.0372 444.233 46.4075 444.233 51.9952V62.2975C444.233 65.6152 441.265 64.3929 441.265 67.0121C441.265 68.0598 441.614 69.2821 444.757 69.2821H456.515C459.716 69.2821 460.007 68.0016 460.007 67.0121C460.007 64.3347 457.038 65.6152 457.038 62.2975V53.4503C457.038 51.7624 457.853 49.958 459.425 49.958C460.589 49.958 461.695 50.5401 462.917 50.5401C465.711 50.5401 467.748 48.4447 467.748 45.5926C467.748 42.7988 465.769 40.4124 462.801 40.4124C459.599 40.4124 456.806 42.6824 455.234 45.7672H455.118V45.709C454.943 43.7301 454.477 40.4124 451.684 40.4124C450.869 40.4124 447.202 41.1108 443.768 42.2167C441.381 42.9734 440.101 43.7883 440.101 45.1852ZM469.58 46.0001C469.58 47.979 471.326 49.4342 474.469 49.4342C479.242 49.4342 479.125 45.0688 482.501 45.0688C484.888 45.0688 485.819 46.1747 485.935 50.6565C477.205 50.6565 467.193 52.228 467.193 60.6677C467.193 65.0913 470.569 69.8642 477.961 69.8642C481.104 69.8642 484.771 69.1075 486.634 66.2554C487.041 68.4672 487.507 69.2821 490.126 69.2821H499.264C501.011 69.2821 502 68.5836 502 67.1285C502 64.4511 499.032 65.3824 499.032 61.9483V51.3549C499.032 41.7511 490.417 40.4124 483.782 40.4124C474.178 40.4124 469.58 42.5659 469.58 46.0001ZM486.226 54.9636C486.226 62.7631 484.131 64.0436 482.56 64.0436C481.046 64.0436 479.998 62.7631 479.998 60.726C479.998 56.7098 483.025 54.9636 486.226 54.9636ZM275.02 109.979C275.02 124.006 286.835 132.213 299.466 132.213C312.096 132.213 323.912 124.006 323.912 109.979C323.912 95.9516 312.096 87.7447 299.466 87.7447C286.835 87.7447 275.02 95.9516 275.02 109.979ZM299.408 92.9831C305.985 92.9831 309.361 98.629 309.361 109.979C309.361 121.387 305.985 126.975 299.466 126.975C292.947 126.975 289.571 121.329 289.571 109.979C289.571 103.46 290.619 92.9831 299.408 92.9831ZM328.548 102.994C326.394 102.936 324.648 103.111 324.648 105.788C324.648 108.466 326.394 108.64 328.548 108.582V124.297C328.548 127.615 325.579 126.393 325.579 129.012C325.579 130.525 326.743 131.282 329.072 131.282H340.829C343.157 131.282 344.321 130.584 344.321 129.012C344.321 126.393 341.353 127.615 341.353 124.297V108.582C344.089 108.466 347.173 109.339 347.173 105.788C347.173 102.18 344.03 103.111 341.12 102.994V97.6977C341.12 96.6501 341.353 95.1949 341.411 93.9144C342.517 95.3113 343.681 95.8934 345.253 95.8934C347.581 95.8934 349.327 94.2054 349.327 91.8772C349.327 88.6759 346.126 87.0462 341.586 87.0462C330.585 87.0462 328.082 94.9039 328.548 102.994ZM349.772 102.994C347.619 102.936 345.873 103.111 345.873 105.788C345.873 108.466 347.619 108.64 349.772 108.582V124.297C349.772 127.615 346.804 126.393 346.804 129.012C346.804 130.525 347.968 131.282 350.296 131.282H362.054C364.382 131.282 365.546 130.584 365.546 129.012C365.546 126.393 362.577 127.615 362.577 124.297V108.582C365.313 108.466 368.398 109.339 368.398 105.788C368.398 102.18 365.255 103.111 362.345 102.994V97.6977C362.345 96.6501 362.577 95.1949 362.636 93.9144C363.741 95.3113 364.906 95.8934 366.477 95.8934C368.805 95.8934 370.551 94.2054 370.551 91.8772C370.551 88.6759 367.35 87.0462 362.81 87.0462C351.809 87.0462 349.307 94.9039 349.772 102.994ZM368.319 113.239C368.319 123.424 383.336 119.583 383.336 124.239C383.336 126.044 381.124 126.859 379.145 126.859C374.14 126.859 374.198 121.795 370.531 121.795C368.785 121.795 367.504 123.25 367.504 124.938C367.504 128.372 372.452 131.864 381.124 131.864C390.845 131.864 396.723 127.324 396.723 121.271C396.723 110.677 381.706 114.228 381.706 109.63C381.706 108 383.103 107.069 385.548 107.069C391.019 107.069 389.972 112.482 393.347 112.482C394.628 112.482 395.676 111.725 395.676 109.397C395.676 107.418 395.734 105.264 393.347 104.333C391.543 103.635 387.352 102.412 383.453 102.412C374.838 102.412 368.319 106.661 368.319 113.239ZM397.876 117.546C397.876 127.033 406.549 131.864 415.047 131.864C422.031 131.864 430.413 127.732 430.413 123.715C430.413 122.377 429.249 121.736 428.143 121.736C425.582 121.736 423.661 126.393 418.131 126.393C414.814 126.393 412.544 124.123 411.729 121.387C420.925 119.816 430.005 117.953 430.005 110.969C430.005 106.894 425.291 102.412 416.443 102.412C407.596 102.412 397.876 107.651 397.876 117.546ZM415.978 107.418C417.782 107.418 418.248 109.222 418.248 110.445C418.248 114.112 414.697 116.265 411.205 116.382C411.321 111.492 413.068 107.418 415.978 107.418ZM429.356 106.021C429.356 108.349 430.869 108.582 434.071 108.582V125.869C434.071 129.711 435.758 131.282 439.716 131.282H449.029C452.172 131.282 453.86 130.293 453.86 128.372C453.86 125.985 451.823 125.753 449.961 125.694C447.749 125.636 446.876 125.287 446.876 122.027V108.582C450.659 108.582 453.336 108.815 453.336 105.788C453.336 102.645 450.484 102.994 446.526 102.994V96.5918C446.526 93.8562 445.828 93.5652 442.452 93.5652C434.769 93.5652 441.637 101.539 432.033 103.344C429.472 103.809 429.356 105.555 429.356 106.021ZM277.872 150.676C274.612 150.676 274.379 152.131 274.379 153.004C274.379 155.914 277.464 154.75 277.464 157.661V186.297C277.464 189.15 274.379 188.044 274.379 190.954C274.379 191.885 274.612 193.282 277.872 193.282H291.492C294.751 193.282 294.984 191.885 294.984 190.954C294.984 187.985 291.433 189.208 291.433 186.297V177.45H291.492C307.265 176.17 315.239 171.222 315.239 162.724C315.239 154.809 309.361 150.676 298.011 150.676H277.872ZM291.433 158.301C291.433 156.205 292.539 155.449 294.169 155.449C298.185 155.449 300.688 158.708 300.688 162.433C300.688 167.788 296.264 170.873 291.433 171.979V158.301ZM314.073 169.185C314.073 172.037 318.206 170.407 318.206 175.995V186.297C318.206 189.615 315.237 188.393 315.237 191.012C315.237 192.06 315.586 193.282 318.729 193.282H330.487C333.688 193.282 333.979 192.002 333.979 191.012C333.979 188.335 331.011 189.615 331.011 186.297V177.45C331.011 175.762 331.826 173.958 333.397 173.958C334.561 173.958 335.667 174.54 336.889 174.54C339.683 174.54 341.72 172.445 341.72 169.593C341.72 166.799 339.741 164.412 336.773 164.412C333.572 164.412 330.778 166.682 329.206 169.767H329.09V169.709C328.915 167.73 328.45 164.412 325.656 164.412C324.841 164.412 321.174 165.111 317.74 166.217C315.353 166.973 314.073 167.788 314.073 169.185ZM340.933 179.138C340.933 188.393 350.013 193.864 358.86 193.864C367.765 193.864 376.787 188.393 376.787 179.138C376.787 169.884 367.707 164.412 358.86 164.412C349.955 164.412 340.933 169.884 340.933 179.138ZM358.802 169.418C360.897 169.418 363.4 170.815 363.4 179.138C363.4 186.996 361.188 188.859 358.86 188.859C356.532 188.859 354.32 186.996 354.32 179.138C354.32 176.228 354.553 169.418 358.802 169.418ZM379.953 156.264C379.953 159.174 382.689 161.851 387.229 161.851C391.769 161.851 394.504 159.174 394.504 156.264C394.504 153.353 391.769 150.676 387.229 150.676C382.689 150.676 379.953 153.353 379.953 156.264ZM377.799 168.836C377.799 171.513 381.175 170.349 381.175 173.376V196.949C381.175 197.065 381.175 197.997 381.001 198.521H380.884C380.419 196.891 378.847 195.145 376.577 195.145C374.656 195.145 372.619 196.367 372.619 198.462C372.619 201.431 376.868 204.108 382.398 204.108C389.79 204.108 393.98 199.976 393.98 194.155V169.476C393.98 164.645 392.001 164.412 391.07 164.412C389.906 164.412 386.472 165.402 381.816 166.042C379.196 166.391 377.799 167.555 377.799 168.836ZM395.659 179.546C395.659 189.033 404.332 193.864 412.83 193.864C419.814 193.864 428.196 189.732 428.196 185.715C428.196 184.377 427.032 183.736 425.926 183.736C423.365 183.736 421.444 188.393 415.915 188.393C412.597 188.393 410.327 186.123 409.512 183.387C418.708 181.816 427.788 179.953 427.788 172.969C427.788 168.894 423.074 164.412 414.227 164.412C405.38 164.412 395.659 169.651 395.659 179.546ZM413.761 169.418C415.565 169.418 416.031 171.222 416.031 172.445C416.031 176.112 412.481 178.265 408.988 178.382C409.105 173.492 410.851 169.418 413.761 169.418ZM428.536 179.138C428.536 188.684 437.034 193.864 445.648 193.864C451.643 193.864 459.85 190.197 459.85 186.006C459.85 184.842 458.919 183.736 457.755 183.736C455.427 183.736 453.39 187.927 448.675 187.927C445.532 187.927 441.923 185.424 441.923 179.313C441.923 173.958 443.437 169.418 446.871 169.418C450.188 169.418 450.014 175.064 454.845 175.064C456.998 175.064 459.268 174.016 459.268 171.513C459.268 167.497 453.739 164.412 445.299 164.412C436.452 164.412 428.536 169.593 428.536 179.138ZM457.685 168.021C457.685 170.349 459.199 170.582 462.4 170.582V187.869C462.4 191.711 464.088 193.282 468.046 193.282H477.359C480.502 193.282 482.19 192.293 482.19 190.372C482.19 187.985 480.153 187.753 478.29 187.694C476.078 187.636 475.205 187.287 475.205 184.027V170.582C478.989 170.582 481.666 170.815 481.666 167.788C481.666 164.645 478.814 164.994 474.856 164.994V158.592C474.856 155.856 474.158 155.565 470.782 155.565C463.099 155.565 469.967 163.539 460.363 165.344C457.802 165.809 457.685 167.555 457.685 168.021Z" fill="#242424"/>
<circle cx="113.5" cy="113.5" r="113.5" fill="#242424"/>
<circle cx="114.956" cy="114.955" r="96.0385" fill="#242424" stroke="white" stroke-width="2.91026"/>
<path d="M114.283 158.72C138.824 158.72 158.719 138.825 158.719 114.283C158.719 89.7412 138.824 69.8462 114.283 69.8462C89.7407 69.8462 69.8457 89.7412 69.8457 114.283C69.8457 138.825 89.7407 158.72 114.283 158.72Z" fill="#88C9F9"/>
<path d="M114.283 158.72C138.824 158.72 158.719 138.825 158.719 114.283C158.719 89.7412 138.824 69.8462 114.283 69.8462C89.7407 69.8462 69.8457 89.7412 69.8457 114.283C69.8457 138.825 89.7407 158.72 114.283 158.72Z" stroke="#242424"/>
<path d="M144.23 128.473C141.719 127.51 142.166 127.861 140.618 124.57C139.07 121.282 138.132 120.223 134.651 119.838C131.168 119.455 131.298 119.727 130.331 117.986C129.363 116.243 125.438 118.458 122.925 119.428C120.404 120.396 121.026 122.504 120.251 122.306C119.473 122.114 117.518 121.613 115.578 120.067C113.642 118.517 117.017 117.307 117.987 116.342C118.957 115.372 116.16 115.9 115.19 115.315C114.22 114.737 112.484 116.478 110.936 114.925C109.386 113.377 110.356 111.054 110.164 109.119C109.969 107.181 112.677 106.795 114.42 106.408C116.16 106.023 117.513 106.41 117.513 108.731C117.513 111.054 119.644 111.829 119.063 109.116C118.483 106.403 119.644 105.633 120.421 104.277C121.194 102.922 122.549 100.984 124.29 98.0809C126.033 95.1777 127.195 96.5306 129.323 96.7379C131.454 96.9478 132.034 96.533 133.582 96.7281C135.125 96.9231 133.582 94.7926 134.165 92.6646C134.742 90.5365 136.873 90.9216 139.006 91.5043C141.134 92.0844 136.873 88.7911 136.1 87.0507C135.322 85.3078 133.194 87.0507 131.844 84.1475C130.479 81.2443 128.575 79.3656 126.833 79.1064C125.09 78.8447 127.388 82.7946 126.033 84.9227C124.672 87.0507 122.589 86.7174 120.453 86.7174C118.328 86.7174 116.353 84.9227 117.903 82.212C119.449 79.5039 122.404 79.7828 123.952 77.4598C125.502 75.1392 118.446 75.3515 115.928 74.5788C113.41 73.8036 110.388 73.811 107.873 75.7465C105.355 77.6795 99.9704 78.2843 97.8399 79.057C95.7119 79.8297 95.3293 77.7733 94.9441 76.2229C94.7713 75.5342 93.9863 75.3169 92.8803 75.3416C87.3998 78.3633 82.6524 82.5305 78.8926 87.4901C79.4777 89.4824 82.3117 87.0236 82.8672 86.4681C83.4474 85.8879 86.3506 86.6631 86.7357 88.7911C87.1233 90.9192 86.9307 93.2472 86.158 95.1826C85.3828 97.1156 88.0935 99.8263 89.6414 102.537C91.1917 105.25 92.9321 105.248 93.7073 105.248C94.48 105.248 98.9336 106.99 98.7386 109.119C98.546 111.249 102.805 113.182 104.547 114.537C106.29 115.898 107.391 117.233 109.653 117.623C111.917 118.013 114.563 121.714 115.723 122.104C116.615 122.4 118.123 123.825 119.034 124.267C117.837 125.782 115.518 128.895 115.518 130.33C115.518 132.27 118.049 135.319 119.017 136.092C119.982 136.862 122.762 137.449 123.337 139.382C123.919 141.318 122.932 147.833 121.194 149.573C119.446 151.314 118.812 155.429 118.812 155.429C118.812 155.429 119.426 156.765 121.485 155.429C123.761 153.955 127.573 149.758 129.096 148.845C132 147.1 134.821 144.982 137.532 142.468C140.243 139.953 139.26 138.19 140.618 135.679C141.973 133.164 143.726 133.277 146.046 131.154C148.372 129.021 146.748 129.443 144.23 128.473Z" fill="#97E99A"/>
<path d="M96.794 117.016C102.559 117.016 107.232 112.342 107.232 106.577C107.232 100.812 102.559 96.1387 96.794 96.1387C91.0289 96.1387 86.3555 100.812 86.3555 106.577C86.3555 112.342 91.0289 117.016 96.794 117.016Z" fill="#242424"/>
<path d="M130.947 117.69C136.712 117.69 141.386 113.016 141.386 107.251C141.386 101.486 136.712 96.8126 130.947 96.8126C125.182 96.8126 120.509 101.486 120.509 107.251C120.509 113.016 125.182 117.69 130.947 117.69Z" fill="#242424"/>
<path d="M106.78 106.928C109.574 106.928 111.838 104.664 111.838 101.87C111.838 99.077 109.574 96.8126 106.78 96.8126C103.987 96.8126 101.723 99.077 101.723 101.87C101.723 104.664 103.987 106.928 106.78 106.928Z" fill="white"/>
<path d="M136.326 106.577C139.12 106.577 141.384 104.313 141.384 101.519C141.384 98.726 139.12 96.4615 136.326 96.4615C133.533 96.4615 131.269 98.726 131.269 101.519C131.269 104.313 133.533 106.577 136.326 106.577Z" fill="white"/>
<path d="M115.198 131.697C111.939 131.695 108.782 130.56 106.268 128.486C103.754 126.413 102.038 123.53 101.416 120.331L105.546 119.53C105.991 121.761 107.195 123.769 108.954 125.211C110.712 126.654 112.917 127.442 115.191 127.442C117.466 127.442 119.67 126.654 121.429 125.211C123.187 123.769 124.391 121.761 124.836 119.53L128.966 120.317C128.347 123.516 126.635 126.401 124.124 128.477C121.612 130.553 118.457 131.691 115.198 131.697Z" fill="#242424"/>
</svg>
